Task 3 – User Car Prices Barcelona 2022
…
Question 3:

Which cars have mileage higher than 150,000 km?

cars_data |>
  filter(`mileage (kms)` > 150000) |>
  select(brand, model, `mileage (kms)`, year)

# A tibble: 68 × 4
   brand      model                 `mileage (kms)`  year
   <chr>      <chr>                           <dbl> <dbl>
 1 Toyota     Rav4                           192000  2011
 2 BMW        Serie 3                        194000  2014
 3 Toyota     Verso                          178807  2016
 4 Nissan     JUKE                           152100  2013
 5 BMW        Serie 2 Active Tourer          160000  2016
 6 BMW        X4                             187000  2017
 7 Citroen    C4                             199990  2012
 8 Mercedes   Benz Clase A                   153501  2015
 9 Mitsubishi Outlander                      170000  2011
10 Audi       A7                             216107  2014
# ℹ 58 more rows

Question 4:

Create a new column showing price per 1,000 km of mileage

cars_data |>
  mutate(price_per_1000km = `price (eur)` / (`mileage (kms)` / 1000)) |>
  select(brand, model, `price (eur)`, `mileage (kms)`, price_per_1000km)

# A tibble: 792 × 5
   brand      model               `price (eur)` `mileage (kms)` price_per_1000km
   <chr>      <chr>                       <dbl>           <dbl>            <dbl>
 1 SEAT       Ibiza                        8990           67000            134. 
 2 Hyundai    i30                          9990          104868             95.3
 3 BMW        Serie 5                     13490          137566             98.1
 4 Volkswagen Golf                        24990           44495            562. 
 5 Opel       Corsa                       10460           69800            150. 
 6 SEAT       Ibiza                        8490          114295             74.3
 7 Jeep       Wrangler                    23990          103000            233. 
 8 Kia        Sportage                    14990           81999            183. 
 9 Land       Rover Discovery Sp…         19490          148575            131. 
10 SEAT       Leon                        21990           18999           1157. 
# ℹ 782 more rows
…
