Task 4 – Toolkit for Used Car Market Barcelona
…
---- STRUCTURE ----
Rows: 792
Columns: 10
$ ...1            <dbl> 0, 1, 2, 3, 4, 5, 6, 7, 8, 9, 10, 11, 12, 13, 14, 15, …
$ brand           <chr> "SEAT", "Hyundai", "BMW", "Volkswagen", "Opel", "SEAT"…
$ model           <chr> "Ibiza", "i30", "Serie 5", "Golf", "Corsa", "Ibiza", "…
$ `price (eur)`   <dbl> 8990, 9990, 13490, 24990, 10460, 8490, 23990, 14990, 1…
$ engine          <chr> "SC 1.2 TSI 90cv Style", "1.6 CRDi 110cv Tecno", "530d…
$ year            <dbl> 2016, 2014, 2011, 2018, 2016, 2014, 2011, 2017, 2017, …
$ `mileage (kms)` <dbl> 67000, 104868, 137566, 44495, 69800, 114295, 103000, 8…
$ fuel            <chr> "Gasolina", "Diésel", "Diésel", "Gasolina", "Gasolina"…
$ gearbox         <chr> "Manual", "Manual", "Automatica", "Manual", "Manual", …
$ location        <chr> "Granollers", "Viladecans", "Viladecans", "Viladecans"…
# A tibble: 792 × 10
    ...1 brand    model `price (eur)` engine  year `mileage (kms)` fuel  gearbox
   <dbl> <chr>    <chr>         <dbl> <chr>  <dbl>           <dbl> <chr> <chr>  
 1     0 SEAT     Ibiza          8990 SC 1.…  2016           67000 Gaso… Manual 
 2     1 Hyundai  i30            9990 1.6 C…  2014          104868 Diés… Manual 
 3     2 BMW      Seri…         13490 530d …  2011          137566 Diés… Automa…
 4     3 Volkswa… Golf          24990 GTI 2…  2018           44495 Gaso… Manual 
 5     4 Opel     Corsa         10460 1.4 E…  2016           69800 Gaso… Manual 
 6     5 SEAT     Ibiza          8490 SC 1.…  2014          114295 Gaso… Manual 
 7     6 Jeep     Wran…         23990 3.8 R…  2011          103000 Gaso… Automa…
 8     7 Kia      Spor…         14990 1.6 G…  2017           81999 Gaso… Manual 
 9     8 Land     Rove…         19490 2.0L …  2017          148575 Diés… Manual 
10     9 SEAT     Leon          21990 1.5 e…  2020           18999 Híbr… Automa…
# ℹ 782 more rows
# ℹ 1 more variable: location <chr>
…
filter_by_mileage <- function(data, min_km) {

result <- data |>
filter(`mileage (kms)` > min_km) |>
select(brand, model, year, `mileage (kms)`, `price (eur)`)

return(result)
}

# NOW CALL THE FUNCTION

cars_over_150k <- filter_by_mileage(cars_data, 150000)
cars_over_150k

# A tibble: 68 × 5
   brand      model                  year `mileage (kms)` `price (eur)`
   <chr>      <chr>                 <dbl>           <dbl>         <dbl>
 1 Toyota     Rav4                   2011          192000          9950
 2 BMW        Serie 3                2014          194000         11380
 3 Toyota     Verso                  2016          178807         10490
 4 Nissan     JUKE                   2013          152100          8490
 5 BMW        Serie 2 Active Tourer  2016          160000         14970
 6 BMW        X4                     2017          187000         26990
 7 Citroen    C4                     2012          199990          5990
 8 Mercedes   Benz Clase A           2015          153501         14990
 9 Mitsubishi Outlander              2011          170000          9490
10 Audi       A7                     2014          216107         20990
# ℹ 58 more rows
…
